%YAML 1.1
%TAG !u! tag:unity3d.com,2011:
--- !u!114 &11400000
MonoBehaviour:
  m_ObjectHideFlags: 0
  m_CorrespondingSourceObject: {fileID: 0}
  m_PrefabInstance: {fileID: 0}
  m_PrefabAsset: {fileID: 0}
  m_GameObject: {fileID: 0}
  m_Enabled: 1
  m_EditorHideFlags: 0
  m_Script: {fileID: 11500000, guid: 08d86269189a54c2c907762208f4cc87, type: 3}
  m_Name: Square Matched Sound
  m_EditorClassIdentifier: 
  clips:
  - {fileID: 8300000, guid: ec0b79e302f2a4e5094f5f8a062cc4f1, type: 3}
  volume:
    minValue: 0.9454247
    maxValue: 0.9999999
  pitch:
    minValue: 0.85137385
    maxValue: 1.1497183
