%YAML 1.1
%TAG !u! tag:unity3d.com,2011:
--- !u!114 &7939742126343267591
MonoBehaviour:
  m_ObjectHideFlags: 0
  m_CorrespondingSourceObject: {fileID: 0}
  m_PrefabInstance: {fileID: 0}
  m_PrefabAsset: {fileID: 0}
  m_GameObject: {fileID: 5428070063481053220}
  m_Enabled: 1
  m_EditorHideFlags: 0
  m_Script: {fileID: 11500000, guid: fdde739dfdf994924958b9d183e0066d, type: 3}
  m_Name: 
  m_EditorClassIdentifier: 
--- !u!1 &5428070064492379111
GameObject:
  m_ObjectHideFlags: 0
  m_CorrespondingSourceObject: {fileID: 0}
  m_PrefabInstance: {fileID: 0}
  m_PrefabAsset: {fileID: 0}
  serializedVersion: 6
  m_Component:
  - component: {fileID: 5428070064492379112}
  - component: {fileID: 5428070064492379115}
  - component: {fileID: 5428070064492379114}
  - component: {fileID: 5428070064492379109}
  - component: {fileID: 4664564682502749544}
  m_Layer: 0
  m_Name: Cube
  m_TagString: Square
  m_Icon: {fileID: 0}
  m_NavMeshLayer: 0
  m_StaticEditorFlags: 0
  m_IsActive: 1
--- !u!4 &5428070064492379112
Transform:
  m_ObjectHideFlags: 0
  m_CorrespondingSourceObject: {fileID: 0}
  m_PrefabInstance: {fileID: 0}
  m_PrefabAsset: {fileID: 0}
  m_GameObject: {fileID: 5428070064492379111}
  m_LocalRotation: {x: 0, y: 0, z: 0, w: 1}
  m_LocalPosition: {x: -0.5, y: 1.5, z: 0}
  m_LocalScale: {x: 1, y: 1, z: 0.1}
  m_Children:
  - {fileID: 5428070063481053221}
  m_Father: {fileID: 0}
  m_RootOrder: 0
  m_LocalEulerAnglesHint: {x: 0, y: 0, z: 0}
--- !u!33 &5428070064492379115
MeshFilter:
  m_ObjectHideFlags: 0
  m_CorrespondingSourceObject: {fileID: 0}
  m_PrefabInstance: {fileID: 0}
  m_PrefabAsset: {fileID: 0}
  m_GameObject: {fileID: 5428070064492379111}
  m_Mesh: {fileID: 10202, guid: 0000000000000000e000000000000000, type: 0}
--- !u!23 &5428070064492379114
MeshRenderer:
  m_ObjectHideFlags: 0
  m_CorrespondingSourceObject: {fileID: 0}
  m_PrefabInstance: {fileID: 0}
  m_PrefabAsset: {fileID: 0}
  m_GameObject: {fileID: 5428070064492379111}
  m_Enabled: 1
  m_CastShadows: 1
  m_ReceiveShadows: 1
  m_DynamicOccludee: 1
  m_MotionVectors: 1
  m_LightProbeUsage: 1
  m_ReflectionProbeUsage: 1
  m_RenderingLayerMask: 1
  m_RendererPriority: 0
  m_Materials:
  - {fileID: 2100000, guid: 9448752106ebe4d51958f0e7e5e3eafc, type: 2}
  m_StaticBatchInfo:
    firstSubMesh: 0
    subMeshCount: 0
  m_StaticBatchRoot: {fileID: 0}
  m_ProbeAnchor: {fileID: 0}
  m_LightProbeVolumeOverride: {fileID: 0}
  m_ScaleInLightmap: 1
  m_PreserveUVs: 0
  m_IgnoreNormalsForChartDetection: 0
  m_ImportantGI: 0
  m_StitchLightmapSeams: 1
  m_SelectedEditorRenderState: 3
  m_MinimumChartSize: 4
  m_AutoUVMaxDistance: 0.5
  m_AutoUVMaxAngle: 89
  m_LightmapParameters: {fileID: 0}
  m_SortingLayerID: 0
  m_SortingLayer: 0
  m_SortingOrder: 0
--- !u!65 &5428070064492379109
BoxCollider:
  m_ObjectHideFlags: 0
  m_CorrespondingSourceObject: {fileID: 0}
  m_PrefabInstance: {fileID: 0}
  m_PrefabAsset: {fileID: 0}
  m_GameObject: {fileID: 5428070064492379111}
  m_Material: {fileID: 0}
  m_IsTrigger: 0
  m_Enabled: 1
  serializedVersion: 2
  m_Size: {x: 1, y: 1, z: 1}
  m_Center: {x: 0, y: 0, z: 0}
--- !u!114 &4664564682502749544
MonoBehaviour:
  m_ObjectHideFlags: 0
  m_CorrespondingSourceObject: {fileID: 0}
  m_PrefabInstance: {fileID: 0}
  m_PrefabAsset: {fileID: 0}
  m_GameObject: {fileID: 5428070064492379111}
  m_Enabled: 1
  m_EditorHideFlags: 0
  m_Script: {fileID: 11500000, guid: 96a7c25b5805f42cb98bda6c879f902a, type: 3}
  m_Name: 
  m_EditorClassIdentifier: 
  cam: {fileID: 0}
--- !u!1001 &4855541669167257844
PrefabInstance:
  m_ObjectHideFlags: 0
  serializedVersion: 2
  m_Modification:
    m_TransformParent: {fileID: 5428070064492379112}
    m_Modifications:
    - target: {fileID: 591723737643628752, guid: f39da7876b49a4b5ca77d5191d63da7a,
        type: 3}
      propertyPath: m_Name
      value: Collider
      objectReference: {fileID: 0}
    - target: {fileID: 591723737643628753, guid: f39da7876b49a4b5ca77d5191d63da7a,
        type: 3}
      propertyPath: m_LocalPosition.x
      value: 0
      objectReference: {fileID: 0}
    - target: {fileID: 591723737643628753, guid: f39da7876b49a4b5ca77d5191d63da7a,
        type: 3}
      propertyPath: m_LocalPosition.y
      value: 0
      objectReference: {fileID: 0}
    - target: {fileID: 591723737643628753, guid: f39da7876b49a4b5ca77d5191d63da7a,
        type: 3}
      propertyPath: m_LocalPosition.z
      value: -0.9
      objectReference: {fileID: 0}
    - target: {fileID: 591723737643628753, guid: f39da7876b49a4b5ca77d5191d63da7a,
        type: 3}
      propertyPath: m_LocalRotation.x
      value: 0
      objectReference: {fileID: 0}
    - target: {fileID: 591723737643628753, guid: f39da7876b49a4b5ca77d5191d63da7a,
        type: 3}
      propertyPath: m_LocalRotation.y
      value: 0
      objectReference: {fileID: 0}
    - target: {fileID: 591723737643628753, guid: f39da7876b49a4b5ca77d5191d63da7a,
        type: 3}
      propertyPath: m_LocalRotation.z
      value: 0
      objectReference: {fileID: 0}
    - target: {fileID: 591723737643628753, guid: f39da7876b49a4b5ca77d5191d63da7a,
        type: 3}
      propertyPath: m_LocalRotation.w
      value: 1
      objectReference: {fileID: 0}
    - target: {fileID: 591723737643628753, guid: f39da7876b49a4b5ca77d5191d63da7a,
        type: 3}
      propertyPath: m_RootOrder
      value: 0
      objectReference: {fileID: 0}
    - target: {fileID: 591723737643628753, guid: f39da7876b49a4b5ca77d5191d63da7a,
        type: 3}
      propertyPath: m_LocalEulerAnglesHint.x
      value: 0
      objectReference: {fileID: 0}
    - target: {fileID: 591723737643628753, guid: f39da7876b49a4b5ca77d5191d63da7a,
        type: 3}
      propertyPath: m_LocalEulerAnglesHint.y
      value: 0
      objectReference: {fileID: 0}
    - target: {fileID: 591723737643628753, guid: f39da7876b49a4b5ca77d5191d63da7a,
        type: 3}
      propertyPath: m_LocalEulerAnglesHint.z
      value: 0
      objectReference: {fileID: 0}
    m_RemovedComponents:
    - {fileID: 591723737643628764, guid: f39da7876b49a4b5ca77d5191d63da7a, type: 3}
  m_SourcePrefab: {fileID: 100100000, guid: f39da7876b49a4b5ca77d5191d63da7a, type: 3}
--- !u!1 &5428070063481053220 stripped
GameObject:
  m_CorrespondingSourceObject: {fileID: 591723737643628752, guid: f39da7876b49a4b5ca77d5191d63da7a,
    type: 3}
  m_PrefabInstance: {fileID: 4855541669167257844}
  m_PrefabAsset: {fileID: 0}
--- !u!4 &5428070063481053221 stripped
Transform:
  m_CorrespondingSourceObject: {fileID: 591723737643628753, guid: f39da7876b49a4b5ca77d5191d63da7a,
    type: 3}
  m_PrefabInstance: {fileID: 4855541669167257844}
  m_PrefabAsset: {fileID: 0}
